{
  "games": [
    {
      "id": 1,
      "title": "Oddworld: Stranger's Wrath",
      "price": 19.98,
      "discount": 0.5,
      "owned": false,
      "thumbnail": "/assets/img/progressive/oddworlds.jpg"
    },
    {
      "id": 2,
      "title": "Chaos on Deponia",
      "price": 9.99,
      "discount": 0,
      "owned": true,
      "thumbnail": "/assets/img/progressive/deponia.jpg"
    },
    {
      "id": 3,
      "title": "The Settlers 2: Gold Edition",
      "price": 5.99,
      "discount": 0,
      "owned": false,
      "thumbnail": "/assets/img/progressive/the_settlers_2.jpg"
    },
    {
      "id": 4,
      "title": "Neverwinter Nights",
      "price": 9.98,
      "discount": 0.5,
      "owned": false,
      "thumbnail": "/assets/img/progressive/neverwinter_nights.jpg"
    },
    {
      "id": 5,
      "title": "Assassin's Creed Director's Cut",
      "price": 9.99,
      "discount": 0,
      "owned": false,
      "thumbnail": "/assets/img/progressive/assassins_creed.jpg"
    }
  ],
  "gameOfTheWeek": {
    "title": "The Witcher Adventure Game",
    "poster": "/assets/img/progressive/the_witcher_adventure.jpg"
  }
}